<svg xmlns="http://www.w3.org/2000/svg" width="150" height="139" viewBox="0 0 150 139">
    <g fill="none" fill-rule="evenodd">
        <g fill-rule="nonzero">
            <g>
                <g>
                    <path fill="#FFF" d="M135.968 135.455H13.124c-5.742 0-10.397-4.66-10.397-10.409V24.045c0-5.748 4.655-10.409 10.397-10.409h122.843c5.742 0 10.397 4.66 10.397 10.409v101.001c0 5.749-4.655 10.409-10.396 10.409z" transform="translate(-899 -286) translate(334 175) translate(565 111)"/>
                    <path fill="#FFE063" d="M3.636 35.455V22.254c0-4.76 3.804-8.618 8.495-8.618h126.647c4.692 0 8.495 3.859 8.495 8.618v13.2H3.636z" transform="translate(-899 -286) translate(334 175) translate(565 111)"/>
                    <path fill="#98999F" d="M20.91 23.636H20c-2.008 0-3.636-1.56-3.636-3.484V6.212c0-1.924 1.628-3.485 3.636-3.485h.91c2.007 0 3.635 1.56 3.635 3.485v13.94c0 1.924-1.628 3.484-3.636 3.484zM129.09 23.636h-.908c-2.008 0-3.637-1.56-3.637-3.484V6.212c0-1.924 1.629-3.485 3.637-3.485h.909c2.008 0 3.636 1.56 3.636 3.485v13.94c0 1.924-1.628 3.484-3.636 3.484z" transform="translate(-899 -286) translate(334 175) translate(565 111)"/>
                    <path fill="#4D4D4D" d="M149.828 34.964l-.022-11.716c-.012-6.373-5.204-11.549-11.58-11.549h-.022l-2.492.005-.009-4.833C135.696 3.082 132.606 0 128.801 0c-3.799.007-6.884 3.1-6.877 6.896l.01 4.833-94.106.177-.009-4.833c-.007-3.788-3.097-6.87-6.902-6.87-1.84.004-3.568.723-4.867 2.025-1.299 1.303-2.013 3.033-2.01 4.872l.01 4.833-2.492.004c-3.083.006-5.986 1.218-8.174 3.413C1.196 17.544-.006 20.449 0 23.529l.194 103.105c.012 6.372 5.204 11.548 11.58 11.548h.022l126.646-.238c3.083-.006 5.986-1.218 8.174-3.412 2.188-2.195 3.39-5.1 3.384-8.18l-.172-91.388zm-21.014-30.57c1.372 0 2.49 1.115 2.492 2.485l.014 7.023v.014l.013 7.023c.001.665-.257 1.29-.727 1.762-.47.471-1.095.732-1.76.733h-.006c-1.371 0-2.489-1.115-2.491-2.485l-.027-14.06c-.002-1.373 1.113-2.492 2.492-2.495zm-109.65.936c.47-.471 1.096-.732 1.766-.733 1.372 0 2.49 1.115 2.492 2.485l.026 14.06c.003 1.373-1.113 2.492-2.487 2.494h-.005c-1.371 0-2.49-1.115-2.492-2.485l-.012-7.026v-.004-.004l-.014-7.026c0-.665.257-1.29.727-1.761zm126.27 31.839l.169 89.192c.003 1.906-.743 3.707-2.103 5.07-1.359 1.363-3.158 2.116-5.066 2.12l-126.647.237h-.013c-3.954 0-7.175-3.21-7.183-7.162l-.167-89.192-.009-4.394-.018-9.52c-.003-1.906.743-3.706 2.103-5.07 1.359-1.363 3.158-2.115 5.066-2.119l2.492-.005.01 4.833c.007 3.789 3.097 6.871 6.889 6.871h.013c3.8-.007 6.884-3.1 6.877-6.896l-.01-4.833 94.106-.177.009 4.833c.007 3.788 3.097 6.87 6.889 6.87h.013c3.799-.007 6.884-3.1 6.877-6.896l-.01-4.833 2.493-.005h.013c3.954 0 7.175 3.21 7.182 7.163l.018 9.52.008 4.393z" transform="translate(-899 -286) translate(334 175) translate(565 111)"/>
                </g>
            </g>
        </g>
    </g>
</svg>
