<svg width="40" height="45" viewBox="0 0 40 45" fill="none" xmlns="http://www.w3.org/2000/svg">
<path d="M37.7199 40.9608C37.7199 43.1787 35.9184 44.9766 33.6961 44.9766H6.03212C3.80981 44.9766 2.0083 43.1787 2.0083 40.9608V4.01577C2.0083 1.79789 3.80981 0 6.03212 0H23.2538C24.0553 0 24.8239 0.318184 25.3901 0.884419L36.8383 12.3341C37.4029 12.8987 37.7199 13.6638 37.7199 14.4615V40.9608Z" fill="white"/>
<path d="M8.74664 44.9766H6.03176C3.81008 44.9766 2.0083 43.1784 2.0083 40.9604V4.01622C2.0083 1.79816 3.81008 0 6.03176 0H8.74664C6.52496 0 4.72318 1.79816 4.72318 4.01622V40.9604C4.72318 43.1784 6.52496 44.9766 8.74664 44.9766Z" fill="#E3E0E4"/>
<path d="M37.7197 14.4613V15.9309H27.2257C24.2285 15.9309 21.7905 13.4921 21.7905 10.4948V0H23.2538C24.0547 0 24.824 0.318546 25.3896 0.884147L36.8382 12.3337C37.4029 12.8984 37.7197 13.664 37.7197 14.4613Z" fill="#E3E0E4"/>
<path d="M37.449 13.2161H27.2257C25.7234 13.2161 24.5054 11.998 24.5054 10.4948V0.272392C24.8321 0.419901 25.1316 0.626232 25.3895 0.884146L36.8382 12.3337C37.0961 12.5916 37.3015 12.8903 37.449 13.2161Z" fill="#11C24F"/>
<path d="M36.0629 39.0038H3.66526C1.66611 39.0038 0.0454102 37.3831 0.0454102 35.384V22.1716C0.0454102 20.1724 1.66611 18.5517 3.66526 18.5517H36.0629C38.062 18.5517 39.6827 20.1724 39.6827 22.1716V35.384C39.6827 37.3831 38.062 39.0038 36.0629 39.0038Z" fill="#2AC660"/>
<path d="M5.92766 39.0038H3.66526C1.6662 39.0038 0.0454102 37.3831 0.0454102 35.384V22.1716C0.0454102 20.1725 1.6662 18.5517 3.66526 18.5517H5.92766C3.9286 18.5517 2.30781 20.1725 2.30781 22.1716V35.384C2.30781 37.3831 3.9286 39.0038 5.92766 39.0038Z" fill="#25A652"/>
<path d="M22.2096 33.2483C22.2083 33.2483 22.207 33.2483 22.2057 33.2483C21.3217 33.2533 20.0379 33.2586 19.2759 33.2568V23.6199C19.2759 23.2449 18.972 22.9411 18.5972 22.9411C18.2223 22.9411 17.9185 23.2449 17.9185 23.6199V33.927C17.9185 34.2576 18.1566 34.5401 18.4825 34.596C18.5314 34.6044 18.5922 34.6149 19.6983 34.6149C20.2426 34.6149 21.0399 34.6123 22.2133 34.6057C22.5881 34.6036 22.8903 34.2981 22.8882 33.9232C22.8862 33.5496 22.5826 33.2483 22.2096 33.2483Z" fill="#F9F8F9"/>
<path d="M30.1025 28.2223C28.7336 27.7173 27.4669 27.165 27.196 27.0458C26.778 26.7522 26.5736 26.2739 26.6479 25.7563C26.7369 25.1357 27.2039 24.6405 27.8968 24.4317C29.6798 23.8942 31.2671 25.1743 31.2999 25.2011C31.5868 25.4407 32.0138 25.4033 32.2546 25.1169C32.4958 24.83 32.4587 24.4018 32.1717 24.1607C32.0846 24.0874 30.0107 22.3775 27.5054 23.1319C26.3113 23.4916 25.4679 24.4234 25.3042 25.5633C25.1528 26.6184 25.6094 27.6327 26.4958 28.2107C26.5258 28.2303 26.5572 28.2474 26.59 28.2619C26.6489 28.2882 28.0516 28.9125 29.6327 29.4958C30.8936 29.9609 31.5286 30.7207 31.3751 31.5806C31.23 32.3932 30.3384 33.2569 28.9718 33.2569C27.7769 33.2569 26.6211 32.7686 25.8799 31.9507C25.6283 31.6729 25.1991 31.6517 24.9212 31.9035C24.6434 32.1553 24.6223 32.5844 24.8741 32.8622C25.8683 33.9593 27.4002 34.6143 28.9718 34.6143C30.8193 34.6143 32.427 33.4127 32.7115 31.8191C32.9248 30.6243 32.3514 29.0518 30.1025 28.2223Z" fill="#F9F8F9"/>
<path d="M12.3738 28.4117L15.4742 24.0108C15.6901 23.7044 15.6167 23.2809 15.3102 23.0651C15.0037 22.849 14.5804 22.9227 14.3645 23.2291L11.5441 27.2325L8.72808 23.2294C8.51243 22.9229 8.089 22.8491 7.7824 23.0649C7.4758 23.2806 7.40214 23.704 7.61779 24.0105L10.7137 28.4113L7.09707 33.5449C6.88115 33.8513 6.95463 34.2748 7.26105 34.4906C7.37987 34.5744 7.51625 34.6146 7.65136 34.6146C7.86466 34.6146 8.07461 34.5143 8.20683 34.3266L11.5433 29.5905L14.8749 34.3263C15.007 34.514 15.2171 34.6146 15.4306 34.6146C15.5655 34.6146 15.7018 34.5745 15.8205 34.4909C16.1271 34.2752 16.2008 33.8518 15.9852 33.5453L12.3738 28.4117Z" fill="#F9F8F9"/>
</svg>
